2019-07-14 18:23:28,181 - root - INFO - running environment: development
2019-07-14 18:23:28,332 - root - INFO - running environment: development
2019-07-14 18:23:31,508 - root - ERROR - 404 Not Found: The requested URL was not found on the server. If you entered the URL manually please check your spelling and try again.
2019-07-14 18:23:35,793 - root - ERROR - 404 Not Found: The requested URL was not found on the server. If you entered the URL manually please check your spelling and try again.
2019-07-14 18:35:28,430 - root - INFO - running environment: development
2019-07-14 18:35:28,652 - root - INFO - running environment: development
2019-07-14 20:44:19,801 - root - INFO - running environment: development
2019-07-14 20:44:20,043 - root - INFO - running environment: development
2019-07-14 20:45:34,931 - root - INFO - running environment: development
2019-07-14 20:45:41,707 - root - INFO - running environment: development
2019-07-14 20:45:54,657 - root - INFO - running environment: development
2019-07-14 20:46:11,524 - root - INFO - running environment: development
2019-07-14 20:46:16,378 - root - INFO - running environment: development
2019-07-14 20:46:27,192 - root - INFO - running environment: development
2019-07-14 20:46:31,951 - root - INFO - running environment: development
2019-07-14 20:47:18,347 - root - INFO - running environment: development
2019-07-14 20:48:27,354 - root - INFO - running environment: development
2019-07-14 20:49:47,503 - root - INFO - running environment: development
2019-07-14 20:49:47,715 - root - INFO - running environment: development
2019-07-14 20:50:52,645 - root - INFO - running environment: development
2019-07-14 20:51:01,395 - root - INFO - running environment: development
2019-07-14 20:51:11,201 - root - INFO - running environment: development
2019-07-14 20:51:44,559 - root - INFO - running environment: development
2019-07-14 20:57:08,660 - root - INFO - running environment: development
2019-07-14 20:57:08,887 - root - INFO - running environment: development
2019-07-14 20:58:10,049 - root - INFO - running environment: development
2019-07-14 20:58:10,321 - root - INFO - running environment: development
2019-07-14 20:58:39,748 - root - INFO - running environment: development
2019-07-14 20:58:42,647 - root - INFO - running environment: development
2019-07-14 20:58:58,590 - root - INFO - running environment: development
2019-07-14 20:59:06,452 - root - INFO - running environment: development
2019-07-14 21:00:58,517 - root - INFO - running environment: development
2019-07-14 21:00:58,729 - root - INFO - running environment: development
2019-07-14 21:01:06,581 - root - INFO - running environment: development
2019-07-14 21:01:41,238 - root - INFO - running environment: development
2019-07-14 21:01:41,459 - root - INFO - running environment: development
2019-07-14 21:02:02,443 - root - INFO - running environment: development
2019-07-14 21:03:12,199 - root - INFO - running environment: development
2019-07-14 21:03:12,416 - root - INFO - running environment: development
2019-07-14 21:03:27,262 - root - INFO - running environment: development
2019-07-14 21:03:42,055 - root - INFO - running environment: development
2019-07-14 21:03:58,922 - root - INFO - running environment: development
2019-07-14 21:04:22,746 - root - INFO - running environment: development
2019-07-14 21:04:41,642 - root - INFO - running environment: development
2019-07-14 21:04:53,539 - root - INFO - running environment: development
2019-07-14 21:05:02,405 - root - INFO - running environment: development
2019-07-14 21:06:18,739 - root - INFO - running environment: development
2019-07-14 21:07:16,672 - root - INFO - running environment: development
2019-07-14 21:07:21,460 - root - INFO - running environment: development
2019-07-14 21:08:07,960 - root - INFO - running environment: development
2019-07-14 21:08:13,728 - root - INFO - running environment: development
2019-07-14 21:08:17,629 - root - INFO - running environment: development
2019-07-14 21:08:24,472 - root - INFO - running environment: development
2019-07-14 21:08:29,220 - root - INFO - running environment: development
2019-07-14 21:08:36,168 - root - INFO - running environment: development
2019-07-14 21:08:47,031 - root - INFO - running environment: development
2019-07-14 21:08:53,964 - root - INFO - running environment: development
2019-07-14 21:08:59,793 - root - INFO - running environment: development
2019-07-14 21:09:47,601 - root - INFO - running environment: development
2019-07-14 21:09:50,452 - root - INFO - running environment: development
2019-07-14 21:10:53,298 - root - INFO - running environment: development
2019-07-14 21:12:17,526 - root - INFO - running environment: development
2019-07-14 21:12:17,734 - root - INFO - running environment: development
2019-07-14 21:12:54,132 - root - INFO - running environment: development
2019-07-14 21:13:27,502 - root - INFO - running environment: development
2019-07-14 21:13:30,357 - root - INFO - running environment: development
2019-07-14 21:13:40,189 - root - INFO - running environment: development
2019-07-14 21:13:50,073 - root - INFO - running environment: development
2019-07-14 21:16:55,719 - root - INFO - running environment: development
2019-07-14 21:17:24,054 - root - INFO - running environment: development
2019-07-14 21:18:04,678 - root - INFO - running environment: development
2019-07-14 21:18:09,461 - root - INFO - running environment: development
2019-07-14 21:18:12,239 - root - INFO - running environment: development
2019-07-14 21:18:38,638 - root - INFO - running environment: development
2019-07-14 21:18:40,751 - root - ERROR - 400 Bad Request: Failed to decode JSON object: Expecting value: line 1 column 1 (char 0)
2019-07-14 21:18:54,157 - root - ERROR - 400 Bad Request: Failed to decode JSON object: Expecting value: line 1 column 1 (char 0)
2019-07-14 21:19:15,948 - root - INFO - running environment: development
2019-07-14 21:19:18,041 - root - ERROR - 400 Bad Request: Failed to decode JSON object: Expecting ':' delimiter: line 3 column 1 (char 6)
2019-07-14 21:19:29,758 - root - INFO - running environment: development
2019-07-14 21:20:56,213 - root - INFO - running environment: development
2019-07-14 21:22:45,253 - root - INFO - running environment: development
2019-07-14 21:23:43,085 - root - INFO - running environment: development
2019-07-14 21:24:06,516 - root - INFO - running environment: development
2019-07-14 21:24:17,354 - root - INFO - running environment: development
2019-07-14 21:24:34,215 - root - INFO - running environment: development
2019-07-14 21:24:56,075 - root - INFO - running environment: development
2019-07-14 21:25:32,437 - root - INFO - running environment: development
2019-07-14 21:44:19,806 - root - INFO - running environment: development
2019-07-14 21:44:20,007 - root - INFO - running environment: development
2019-07-14 21:45:11,347 - root - INFO - running environment: development
2019-07-14 21:46:04,618 - root - INFO - running environment: development
2019-07-14 21:46:17,369 - root - INFO - running environment: development
2019-07-14 21:46:45,121 - root - INFO - running environment: development
2019-07-14 21:47:52,464 - root - INFO - running environment: development
2019-07-14 21:48:12,246 - root - INFO - running environment: development
2019-07-14 21:48:48,536 - root - INFO - running environment: development
2019-07-14 21:54:02,169 - root - INFO - running environment: development
2019-07-14 21:54:23,931 - root - INFO - running environment: development
2019-07-14 21:56:03,864 - root - INFO - running environment: development
2019-07-14 21:56:04,062 - root - INFO - running environment: development
2019-07-14 21:57:08,371 - root - INFO - running environment: development
2019-07-14 21:59:34,280 - root - INFO - running environment: development
2019-07-14 23:10:42,034 - root - INFO - running environment: development
2019-07-14 23:10:42,273 - root - INFO - running environment: development
2019-07-14 23:13:12,073 - root - INFO - running environment: development
2019-07-14 23:13:12,286 - root - INFO - running environment: development
2019-07-14 23:18:13,441 - root - INFO - running environment: development
2019-07-14 23:22:01,137 - root - INFO - running environment: development
2019-07-14 23:22:01,349 - root - INFO - running environment: development
2019-07-14 23:23:07,996 - root - INFO - running environment: development
2019-07-14 23:23:08,209 - root - INFO - running environment: development
2019-07-14 23:23:35,982 - root - INFO - running environment: development
2019-07-14 23:23:57,770 - root - INFO - running environment: development
2019-07-14 23:26:48,233 - root - INFO - running environment: development
2019-07-14 23:26:57,992 - root - INFO - running environment: development
2019-07-14 23:29:20,963 - root - INFO - running environment: development
2019-07-14 23:29:33,704 - root - INFO - running environment: development
2019-07-14 23:30:31,016 - root - INFO - running environment: development
2019-07-14 23:30:34,771 - root - INFO - running environment: development
2019-07-14 23:35:56,190 - app.controllers.users - DEBUG - {'name': 'aalonzo', 'email': 'aalonzolu@gmail.com', 'password': '123456'}
2019-07-14 23:36:18,952 - root - INFO - running environment: development
2019-07-14 23:36:46,287 - app.controllers.users - DEBUG - {'name': 'admin', 'email': 'aalonzolu@gmail.com', 'password': b'$2b$12$2tHU8EKfUw149gC.XU7Vvum7QdNErKx7/pEBlbHRYvTJv9SLmyQRm'}
2019-07-14 23:38:05,045 - root - INFO - running environment: development
2019-07-14 23:38:05,259 - root - INFO - running environment: development
2019-07-14 23:38:05,400 - app.controllers.users - DEBUG - {'name': 'admin', 'email': 'aalonzolu@gmail.com', 'password': b'$2b$12$2tHU8EKfUw149gC.XU7Vvum7QdNErKx7/pEBlbHRYvTJv9SLmyQRm'}
2019-07-14 23:38:17,491 - app.controllers.users - DEBUG - {'name': 'admin', 'email': 'aalonzolu@gmail.com', 'password': b'$2b$12$2tHU8EKfUw149gC.XU7Vvum7QdNErKx7/pEBlbHRYvTJv9SLmyQRm'}
2019-07-14 23:38:22,282 - app.controllers.users - DEBUG - {'name': 'admin', 'email': 'aalonzolu@gmail.com', 'password': b'$2b$12$2tHU8EKfUw149gC.XU7Vvum7QdNErKx7/pEBlbHRYvTJv9SLmyQRm'}
2019-07-14 23:39:23,117 - root - INFO - running environment: development
2019-07-14 23:39:30,872 - root - INFO - running environment: development
2019-07-14 23:51:11,507 - root - INFO - running environment: development
2019-07-14 23:53:13,933 - root - INFO - running environment: development
2019-07-14 23:53:14,158 - root - INFO - running environment: development
2019-07-14 23:53:32,918 - root - INFO - running environment: development
2019-07-15 00:01:57,226 - root - INFO - running environment: development
2019-07-15 00:01:57,438 - root - INFO - running environment: development
2019-07-15 00:02:32,225 - root - INFO - running environment: development
2019-07-15 00:03:11,536 - root - INFO - running environment: development
2019-07-15 00:03:38,293 - root - INFO - running environment: development
2019-07-15 00:04:12,068 - root - INFO - running environment: development
2019-07-15 00:04:33,831 - root - INFO - running environment: development
2019-07-15 00:07:10,296 - root - INFO - running environment: development
2019-07-15 00:07:10,515 - root - INFO - running environment: development
2019-07-15 00:09:34,440 - root - INFO - running environment: development
2019-07-15 00:10:02,202 - root - INFO - running environment: development
2019-07-15 00:10:13,959 - root - INFO - running environment: development
2019-07-15 00:10:19,719 - root - INFO - running environment: development
2019-07-15 00:10:21,997 - app.controllers.users - DEBUG - {'name': 'admin', 'email': 'aalonzolu@gmail.com', 'password': b'$2b$12$2tHU8EKfUw149gC.XU7Vvum7QdNErKx7/pEBlbHRYvTJv9SLmyQRm'}
2019-07-15 00:10:45,496 - root - INFO - running environment: development
2019-07-15 00:11:37,810 - root - INFO - running environment: development
2019-07-15 00:12:35,634 - root - INFO - running environment: development
2019-07-15 00:12:50,376 - root - INFO - running environment: development
2019-07-15 00:13:10,149 - root - INFO - running environment: development
2019-07-15 00:16:42,850 - root - INFO - running environment: development
2019-07-15 00:16:43,060 - root - INFO - running environment: development
2019-07-15 00:17:10,812 - root - INFO - running environment: development
2019-07-15 00:17:19,571 - root - INFO - running environment: development
2019-07-15 00:17:24,311 - app.controllers.users - DEBUG - {'name': 'admin', 'email': 'aalonzolu@gmail.com', 'password': b'$2b$12$2tHU8EKfUw149gC.XU7Vvum7QdNErKx7/pEBlbHRYvTJv9SLmyQRm'}
2019-07-15 00:24:16,328 - root - INFO - running environment: development
2019-07-15 00:24:25,093 - root - INFO - running environment: development
2019-07-15 00:24:40,857 - root - INFO - running environment: development
2019-07-15 00:24:44,608 - root - INFO - running environment: development
2019-07-15 00:25:01,350 - root - INFO - running environment: development
2019-07-15 00:25:13,125 - root - INFO - running environment: development
2019-07-15 00:25:15,884 - root - INFO - running environment: development
2019-07-15 00:25:19,626 - root - INFO - running environment: development
2019-07-15 00:25:23,362 - root - INFO - running environment: development
2019-07-19 16:16:45,118 - root - INFO - running environment: development
2019-07-19 16:16:45,382 - root - INFO - running environment: development
2019-07-19 16:17:29,374 - root - ERROR - 404 Not Found: The requested URL was not found on the server. If you entered the URL manually please check your spelling and try again.
2019-07-19 16:17:29,769 - root - ERROR - 404 Not Found: The requested URL was not found on the server. If you entered the URL manually please check your spelling and try again.
2019-07-19 17:58:13,108 - root - INFO - running environment: development
2019-07-19 17:58:13,349 - root - INFO - running environment: development
2019-07-19 18:02:57,856 - root - INFO - running environment: development
2019-07-19 18:02:58,090 - root - INFO - running environment: development
2019-07-19 18:05:21,309 - app.controllers.users - DEBUG - None
2019-07-19 18:05:53,503 - app.controllers.users - DEBUG - None
2019-07-19 18:06:32,230 - root - INFO - running environment: development
2019-07-19 18:14:11,086 - root - INFO - running environment: development
2019-07-19 18:14:19,843 - root - INFO - running environment: development
2019-07-19 18:14:32,046 - app.controllers.users - DEBUG - None
2019-07-19 18:14:43,623 - root - INFO - running environment: development
2019-07-19 18:14:49,839 - app.controllers.users - DEBUG - None
2019-07-19 18:15:20,927 - root - INFO - running environment: development
2019-07-19 18:15:22,700 - root - INFO - running environment: development
2019-07-19 18:15:27,362 - app.controllers.users - DEBUG - None
2019-07-19 18:15:40,553 - app.controllers.users - DEBUG - None
2019-07-19 18:16:11,007 - root - INFO - running environment: development
2019-07-19 18:16:14,940 - app.controllers.users - INFO - No users in database, creating default user...
2019-07-19 18:16:14,940 - app.controllers.users - DEBUG - None
2019-07-19 18:16:23,799 - root - INFO - running environment: development
2019-07-19 18:16:26,568 - root - INFO - running environment: development
2019-07-19 18:17:57,985 - root - INFO - running environment: development
2019-07-19 18:18:10,730 - root - INFO - running environment: development
2019-07-19 18:18:18,498 - root - INFO - running environment: development
2019-07-19 18:18:22,269 - root - INFO - running environment: development
2019-07-19 18:18:43,042 - root - INFO - running environment: development
2019-07-19 18:18:57,974 - app.controllers.users - INFO - No users in database, creating default user... username: None password: None
2019-07-19 18:20:41,917 - app.controllers.users - INFO - No users in database, creating default user... username: None password: None
2019-07-19 18:20:44,463 - app.controllers.users - INFO - No users in database, creating default user... username: None password: None
2019-07-19 18:21:15,412 - root - INFO - running environment: development
2019-07-19 18:21:15,639 - root - INFO - running environment: development
2019-07-19 18:21:21,186 - app.controllers.users - INFO - No users in database, creating default user... username: admin password: admin
2019-07-19 18:22:09,818 - root - INFO - running environment: development
2019-07-19 18:22:10,057 - root - INFO - running environment: development
2019-07-19 18:22:47,476 - root - INFO - running environment: development
2019-07-19 18:22:47,700 - root - INFO - running environment: development
2019-07-19 18:22:52,867 - app.controllers.users - INFO - No env vars ADMIN_USERNAME, ADMIN_PASSWORD for init user
2019-07-19 18:23:34,114 - root - INFO - running environment: development
2019-07-19 18:23:34,362 - root - INFO - running environment: development
2019-07-19 18:23:39,096 - app.controllers.users - INFO - No users in database, creating default user... username: admin password: admin
2019-07-19 18:27:22,050 - app.controllers.users - INFO - No users in database, creating default user... username: admin password: admin
2019-07-19 18:28:11,955 - root - INFO - running environment: development
2019-07-19 18:28:32,739 - root - INFO - running environment: development
2019-07-19 18:31:31,718 - root - INFO - running environment: development
2019-07-19 18:31:44,485 - root - INFO - running environment: development
2019-07-19 18:31:53,297 - app.controllers.users - INFO - No users in database, creating default user... username: admin password: admin
2019-07-19 18:31:53,643 - app.controllers.users - INFO - User created
2019-07-19 21:15:04,639 - root - INFO - running environment: development
2019-07-19 21:15:30,915 - root - INFO - running environment: development
